NMSGrein_SR04CO2rH_058b6e3e_tem-ms1
NMSGrein_SR04CO2rH_058b6e3e_rhu-ms1
NMSGrein_SR04CO2rH_058b6e3e_cdi-ms1
NMSGrein_SR04rH_018a3c38_tem-ms1
NMSGrein_SR04rH_018a3c38_rhu-ms1
NMSGrein_SRW01_018efd25_con-ms1
NMSGrein_SRW01_01954a85_con-ms1
NMSGrein_SRW01_019dc24c_con-ms1
NMSGrein_SRW01_018ef21e_con-ms1
NMSGrein_SRW01_018ef9ef_con-ms1
NMSGrein_SRW01_0001bc3a_con-ms1
NMSGrein_SRW01_0001bc20_con-ms1
NMSGrein_SRW01_0001bc38_con-ms1
NMSGrein_SRW01_0001c0a0_con-ms1
NMSGrein_SRW01_0001bc57_con-ms1
NMSGrein_SRW01_018efd4b_con-ms1
NMSGrein_SRW01_019dcac2_con-ms1
NMSGrein_SRW01_0001bc13_con-ms1
NMSGrein_SRW01_018effec_con-ms1
NMSGrein_SRW01_018ef1db_con-ms1
NMSGrein_SRW01_019594e2_con-ms1
