NMSGrein_SR04CO2rH_05856671_tem-ms1
NMSGrein_SR04CO2rH_05856671_rhu-ms1
NMSGrein_SR04CO2rH_05856671_cdi-ms1
NMSGrein_SR04rH_018a38ac_tem-ms1
NMSGrein_SR04rH_018a38ac_rhu-ms1
NMSGrein_SRW01_019dc428_con-ms1
NMSGrein_SRW01_0195584d_con-ms1
NMSGrein_SRW01_018ef1b6_con-ms1
NMSGrein_SRW01_019dc4d8_con-ms1
NMSGrein_SRW01_019dcdd9_con-ms1
NMSGrein_SRW01_019dc60e_con-ms1
NMSGrein_SRW01_019dc4c7_con-ms1
NMSGrein_SRW01_018efc29_con-ms1
NMSGrein_SRW01_01958a02_con-ms1
NMSGrein_SRW01_0195529a_con-ms1
NMSGrein_SRW01_019dcdaf_con-ms1
NMSGrein_SRW01_018ef1ac_con-ms1
NMSGrein_SRW01_01954ed3_con-ms1
NMSGrein_SRW01_019dc63c_con-ms1
NMSGrein_SRW01_019dc6ac_con-ms1
NMSGrein_SRW01_019554b5_con-ms1
